﻿[MUSIC#1]
NOTES=C68G58C68E68G68C78G68G#58C68D#68G#68D#68G#68C78D#78G#78D#78D68F68A#68F68A#68D78F78D78F78A#78F78
NOTE_LENGTH=5
NOTE_INTERVAL=0

[MUSIC#2]
NOTES=C68G58C68E68G68C78G68G#58C68D#68G#68D#68G#68C78D#78G#78D#78D68F68A#68F68A#68D78F78D78F78A#78F78
NOTE_LENGTH=5
NOTE_INTERVAL=0

[MUSIC#3]
NOTES=C68G58C68E68G68C78G68G#58C68D#68G#68D#68G#68C78D#78G#78D#78D68F68A#68F68A#68D78F78D78F78A#78F78
NOTE_LENGTH=5
NOTE_INTERVAL=0

[MUSIC#4]
NOTES=C68G58C68E68G68C78G68G#58C68D#68G#68D#68G#68C78D#78G#78D#78D68F68A#68F68A#68D78F78D78F78A#78F78
NOTE_LENGTH=5
NOTE_INTERVAL=0

